dataset, category, original_file_name, predicted_file_name, truth_file_name, loss_file_name, thresh, TP, TN, FP, FN, TPR, FPR
"grid", "broken", "../mvtec_ad/cache/grid/test/broken/008.png", "results/grid/regression_1/predicted/broken/008.png", "../mvtec_ad/cache/grid/ground_truth/broken/008_mask.png", "results/grid/regression_1/loss/broken/008.png", 0.5391740217839583, 978, 1039788, 4653, 3157, 0.23651753325272068, 0.004455014692069729
"grid", "broken", "../mvtec_ad/cache/grid/test/broken/009.png", "results/grid/regression_1/predicted/broken/009.png", "../mvtec_ad/cache/grid/ground_truth/broken/009_mask.png", "results/grid/regression_1/loss/broken/009.png", 0.5391740217839583, 1040, 969632, 72637, 5267, 0.16489614713810052, 0.06969122174793647
"grid", "broken", "../mvtec_ad/cache/grid/test/broken/002.png", "results/grid/regression_1/predicted/broken/002.png", "../mvtec_ad/cache/grid/ground_truth/broken/002_mask.png", "results/grid/regression_1/loss/broken/002.png", 0.5391740217839583, 917, 1038451, 7443, 1765, 0.3419090231170768, 0.007116399941103018
"grid", "broken", "../mvtec_ad/cache/grid/test/broken/006.png", "results/grid/regression_1/predicted/broken/006.png", "../mvtec_ad/cache/grid/ground_truth/broken/006_mask.png", "results/grid/regression_1/loss/broken/006.png", 0.5391740217839583, 861, 1041173, 1914, 4628, 0.15685917289123702, 0.0018349380253037378
"grid", "broken", "../mvtec_ad/cache/grid/test/broken/007.png", "results/grid/regression_1/predicted/broken/007.png", "../mvtec_ad/cache/grid/ground_truth/broken/007_mask.png", "results/grid/regression_1/loss/broken/007.png", 0.5391740217839583, 849, 1033189, 10535, 4003, 0.17497938994229184, 0.01009366460865133
"grid", "broken", "../mvtec_ad/cache/grid/test/broken/010.png", "results/grid/regression_1/predicted/broken/010.png", "../mvtec_ad/cache/grid/ground_truth/broken/010_mask.png", "results/grid/regression_1/loss/broken/010.png", 0.5391740217839583, 515, 1033407, 9999, 4655, 0.09961315280464217, 0.009583038625424811
"grid", "broken", "../mvtec_ad/cache/grid/test/broken/001.png", "results/grid/regression_1/predicted/broken/001.png", "../mvtec_ad/cache/grid/ground_truth/broken/001_mask.png", "results/grid/regression_1/loss/broken/001.png", 0.5391740217839583, 6820, 1008935, 15265, 17556, 0.27978339350180503, 0.01490431556336653
"grid", "broken", "../mvtec_ad/cache/grid/test/broken/000.png", "results/grid/regression_1/predicted/broken/000.png", "../mvtec_ad/cache/grid/ground_truth/broken/000_mask.png", "results/grid/regression_1/loss/broken/000.png", 0.5391740217839583, 1656, 1033825, 7323, 5772, 0.22294022617124395, 0.00703358216122972
"grid", "broken", "../mvtec_ad/cache/grid/test/broken/005.png", "results/grid/regression_1/predicted/broken/005.png", "../mvtec_ad/cache/grid/ground_truth/broken/005_mask.png", "results/grid/regression_1/loss/broken/005.png", 0.5391740217839583, 1062, 1036895, 5053, 5566, 0.16022933011466506, 0.004849570228072802
"grid", "broken", "../mvtec_ad/cache/grid/test/broken/004.png", "results/grid/regression_1/predicted/broken/004.png", "../mvtec_ad/cache/grid/ground_truth/broken/004_mask.png", "results/grid/regression_1/loss/broken/004.png", 0.5391740217839583, 598, 1039494, 4466, 4018, 0.12954939341421143, 0.004277941683589409
"grid", "broken", "../mvtec_ad/cache/grid/test/broken/011.png", "results/grid/regression_1/predicted/broken/011.png", "../mvtec_ad/cache/grid/ground_truth/broken/011_mask.png", "results/grid/regression_1/loss/broken/011.png", 0.5391740217839583, 359, 1021726, 22848, 3643, 0.08970514742628685, 0.021873031494178487
"grid", "broken", "../mvtec_ad/cache/grid/test/broken/003.png", "results/grid/regression_1/predicted/broken/003.png", "../mvtec_ad/cache/grid/ground_truth/broken/003_mask.png", "results/grid/regression_1/loss/broken/003.png", 0.5391740217839583, 3102, 1024783, 11933, 8758, 0.2615514333895447, 0.011510384714810999
"grid", "glue", "../mvtec_ad/cache/grid/test/glue/008.png", "results/grid/regression_1/predicted/glue/008.png", "../mvtec_ad/cache/grid/ground_truth/glue/008_mask.png", "results/grid/regression_1/loss/glue/008.png", 0.5391740217839583, 382, 971634, 74558, 2002, 0.16023489932885907, 0.07126607735482589
"grid", "glue", "../mvtec_ad/cache/grid/test/glue/009.png", "results/grid/regression_1/predicted/glue/009.png", "../mvtec_ad/cache/grid/ground_truth/glue/009_mask.png", "results/grid/regression_1/loss/glue/009.png", 0.5391740217839583, 1168, 1017189, 24839, 5380, 0.17837507635919364, 0.02383717136199795
"grid", "glue", "../mvtec_ad/cache/grid/test/glue/002.png", "results/grid/regression_1/predicted/glue/002.png", "../mvtec_ad/cache/grid/ground_truth/glue/002_mask.png", "results/grid/regression_1/loss/glue/002.png", 0.5391740217839583, 350, 1039104, 4073, 5049, 0.064826819781441, 0.0039044189049413473
"grid", "glue", "../mvtec_ad/cache/grid/test/glue/006.png", "results/grid/regression_1/predicted/glue/006.png", "../mvtec_ad/cache/grid/ground_truth/glue/006_mask.png", "results/grid/regression_1/loss/glue/006.png", 0.5391740217839583, 546, 1019663, 24075, 4292, 0.1128565522943365, 0.023066133454947506
"grid", "glue", "../mvtec_ad/cache/grid/test/glue/007.png", "results/grid/regression_1/predicted/glue/007.png", "../mvtec_ad/cache/grid/ground_truth/glue/007_mask.png", "results/grid/regression_1/loss/glue/007.png", 0.5391740217839583, 423, 1039751, 3700, 4702, 0.08253658536585366, 0.0035459259706493167
"grid", "glue", "../mvtec_ad/cache/grid/test/glue/010.png", "results/grid/regression_1/predicted/glue/010.png", "../mvtec_ad/cache/grid/ground_truth/glue/010_mask.png", "results/grid/regression_1/loss/glue/010.png", 0.5391740217839583, 369, 1027942, 13823, 6442, 0.05417706651005726, 0.013268827422691297
"grid", "glue", "../mvtec_ad/cache/grid/test/glue/001.png", "results/grid/regression_1/predicted/glue/001.png", "../mvtec_ad/cache/grid/ground_truth/glue/001_mask.png", "results/grid/regression_1/loss/glue/001.png", 0.5391740217839583, 331, 1038691, 4866, 4688, 0.06594939230922495, 0.0046628981454774395
"grid", "glue", "../mvtec_ad/cache/grid/test/glue/000.png", "results/grid/regression_1/predicted/glue/000.png", "../mvtec_ad/cache/grid/ground_truth/glue/000_mask.png", "results/grid/regression_1/loss/glue/000.png", 0.5391740217839583, 1147, 1014687, 28118, 4624, 0.1987523826026685, 0.026963813944121864
"grid", "glue", "../mvtec_ad/cache/grid/test/glue/005.png", "results/grid/regression_1/predicted/glue/005.png", "../mvtec_ad/cache/grid/ground_truth/glue/005_mask.png", "results/grid/regression_1/loss/glue/005.png", 0.5391740217839583, 110, 1014794, 31240, 2432, 0.043273013375295044, 0.029865186026458032
"grid", "glue", "../mvtec_ad/cache/grid/test/glue/004.png", "results/grid/regression_1/predicted/glue/004.png", "../mvtec_ad/cache/grid/ground_truth/glue/004_mask.png", "results/grid/regression_1/loss/glue/004.png", 0.5391740217839583, 547, 1030779, 10101, 7149, 0.07107588357588357, 0.009704288678810237
"grid", "glue", "../mvtec_ad/cache/grid/test/glue/003.png", "results/grid/regression_1/predicted/glue/003.png", "../mvtec_ad/cache/grid/ground_truth/glue/003_mask.png", "results/grid/regression_1/loss/glue/003.png", 0.5391740217839583, 237, 1038650, 5132, 4557, 0.04943679599499374, 0.004916735486912018
"grid", "bent", "../mvtec_ad/cache/grid/test/bent/008.png", "results/grid/regression_1/predicted/bent/008.png", "../mvtec_ad/cache/grid/ground_truth/bent/008_mask.png", "results/grid/regression_1/loss/bent/008.png", 0.5391740217839583, 906, 1039248, 3108, 5314, 0.14565916398713827, 0.0029817068256910305
"grid", "bent", "../mvtec_ad/cache/grid/test/bent/009.png", "results/grid/regression_1/predicted/bent/009.png", "../mvtec_ad/cache/grid/ground_truth/bent/009_mask.png", "results/grid/regression_1/loss/bent/009.png", 0.5391740217839583, 2708, 1029862, 4246, 11760, 0.18717168924523087, 0.0041059541169781106
"grid", "bent", "../mvtec_ad/cache/grid/test/bent/002.png", "results/grid/regression_1/predicted/bent/002.png", "../mvtec_ad/cache/grid/ground_truth/bent/002_mask.png", "results/grid/regression_1/loss/bent/002.png", 0.5391740217839583, 1168, 1038787, 5474, 3147, 0.27068366164542296, 0.005241984523026331
"grid", "bent", "../mvtec_ad/cache/grid/test/bent/006.png", "results/grid/regression_1/predicted/bent/006.png", "../mvtec_ad/cache/grid/ground_truth/bent/006_mask.png", "results/grid/regression_1/loss/bent/006.png", 0.5391740217839583, 5474, 1016649, 9298, 17155, 0.24190198417959255, 0.009062846326369686
"grid", "bent", "../mvtec_ad/cache/grid/test/bent/007.png", "results/grid/regression_1/predicted/bent/007.png", "../mvtec_ad/cache/grid/ground_truth/bent/007_mask.png", "results/grid/regression_1/loss/bent/007.png", 0.5391740217839583, 3087, 1032341, 4268, 8880, 0.2579593883178741, 0.0041172708321073805
"grid", "bent", "../mvtec_ad/cache/grid/test/bent/010.png", "results/grid/regression_1/predicted/bent/010.png", "../mvtec_ad/cache/grid/ground_truth/bent/010_mask.png", "results/grid/regression_1/loss/bent/010.png", 0.5391740217839583, 2869, 1025276, 3706, 16725, 0.1464223741961825, 0.0036016179097399176
"grid", "bent", "../mvtec_ad/cache/grid/test/bent/001.png", "results/grid/regression_1/predicted/bent/001.png", "../mvtec_ad/cache/grid/ground_truth/bent/001_mask.png", "results/grid/regression_1/loss/bent/001.png", 0.5391740217839583, 1013, 1037323, 6699, 3541, 0.22244180939833114, 0.006416531452402344
"grid", "bent", "../mvtec_ad/cache/grid/test/bent/000.png", "results/grid/regression_1/predicted/bent/000.png", "../mvtec_ad/cache/grid/ground_truth/bent/000_mask.png", "results/grid/regression_1/loss/bent/000.png", 0.5391740217839583, 1240, 1035013, 8103, 4220, 0.2271062271062271, 0.007768071815598649
"grid", "bent", "../mvtec_ad/cache/grid/test/bent/005.png", "results/grid/regression_1/predicted/bent/005.png", "../mvtec_ad/cache/grid/ground_truth/bent/005_mask.png", "results/grid/regression_1/loss/bent/005.png", 0.5391740217839583, 3074, 1029083, 4534, 11885, 0.20549501972056955, 0.004386537760118109
"grid", "bent", "../mvtec_ad/cache/grid/test/bent/004.png", "results/grid/regression_1/predicted/bent/004.png", "../mvtec_ad/cache/grid/ground_truth/bent/004_mask.png", "results/grid/regression_1/loss/bent/004.png", 0.5391740217839583, 1843, 1035681, 4186, 6866, 0.21162016304971867, 0.004025514801412103
"grid", "bent", "../mvtec_ad/cache/grid/test/bent/011.png", "results/grid/regression_1/predicted/bent/011.png", "../mvtec_ad/cache/grid/ground_truth/bent/011_mask.png", "results/grid/regression_1/loss/bent/011.png", 0.5391740217839583, 2229, 1029696, 3744, 12907, 0.14726479915433405, 0.0036228518346493265
"grid", "bent", "../mvtec_ad/cache/grid/test/bent/003.png", "results/grid/regression_1/predicted/bent/003.png", "../mvtec_ad/cache/grid/ground_truth/bent/003_mask.png", "results/grid/regression_1/loss/bent/003.png", 0.5391740217839583, 2077, 1011673, 29043, 5783, 0.2642493638676845, 0.02790674881523874
"grid", "metal_contamination", "../mvtec_ad/cache/grid/test/metal_contamination/008.png", "results/grid/regression_1/predicted/metal_contamination/008.png", "../mvtec_ad/cache/grid/ground_truth/metal_contamination/008_mask.png", "results/grid/regression_1/loss/metal_contamination/008.png", 0.5391740217839583, 852, 1038476, 5857, 3391, 0.20080131982088145, 0.005608364381859043
"grid", "metal_contamination", "../mvtec_ad/cache/grid/test/metal_contamination/009.png", "results/grid/regression_1/predicted/metal_contamination/009.png", "../mvtec_ad/cache/grid/ground_truth/metal_contamination/009_mask.png", "results/grid/regression_1/loss/metal_contamination/009.png", 0.5391740217839583, 1400, 1040303, 4024, 2849, 0.32948929159802304, 0.00385319923740361
"grid", "metal_contamination", "../mvtec_ad/cache/grid/test/metal_contamination/002.png", "results/grid/regression_1/predicted/metal_contamination/002.png", "../mvtec_ad/cache/grid/ground_truth/metal_contamination/002_mask.png", "results/grid/regression_1/loss/metal_contamination/002.png", 0.5391740217839583, 828, 1010323, 33606, 3819, 0.17817947062621045, 0.03219184446451818
"grid", "metal_contamination", "../mvtec_ad/cache/grid/test/metal_contamination/006.png", "results/grid/regression_1/predicted/metal_contamination/006.png", "../mvtec_ad/cache/grid/ground_truth/metal_contamination/006_mask.png", "results/grid/regression_1/loss/metal_contamination/006.png", 0.5391740217839583, 372, 1037149, 8296, 2759, 0.1188118811881188, 0.007935376801266446
"grid", "metal_contamination", "../mvtec_ad/cache/grid/test/metal_contamination/007.png", "results/grid/regression_1/predicted/metal_contamination/007.png", "../mvtec_ad/cache/grid/ground_truth/metal_contamination/007_mask.png", "results/grid/regression_1/loss/metal_contamination/007.png", 0.5391740217839583, 418, 1037010, 9590, 1558, 0.21153846153846154, 0.009163004012994459
"grid", "metal_contamination", "../mvtec_ad/cache/grid/test/metal_contamination/010.png", "results/grid/regression_1/predicted/metal_contamination/010.png", "../mvtec_ad/cache/grid/ground_truth/metal_contamination/010_mask.png", "results/grid/regression_1/loss/metal_contamination/010.png", 0.5391740217839583, 915, 1037716, 5697, 4248, 0.17722254503195817, 0.005459966475403316
"grid", "metal_contamination", "../mvtec_ad/cache/grid/test/metal_contamination/001.png", "results/grid/regression_1/predicted/metal_contamination/001.png", "../mvtec_ad/cache/grid/ground_truth/metal_contamination/001_mask.png", "results/grid/regression_1/loss/metal_contamination/001.png", 0.5391740217839583, 1018, 1033766, 7358, 6434, 0.1366076221148685, 0.007067361812810002
"grid", "metal_contamination", "../mvtec_ad/cache/grid/test/metal_contamination/000.png", "results/grid/regression_1/predicted/metal_contamination/000.png", "../mvtec_ad/cache/grid/ground_truth/metal_contamination/000_mask.png", "results/grid/regression_1/loss/metal_contamination/000.png", 0.5391740217839583, 588, 1008453, 37499, 2036, 0.22408536585365854, 0.03585154959309796
"grid", "metal_contamination", "../mvtec_ad/cache/grid/test/metal_contamination/005.png", "results/grid/regression_1/predicted/metal_contamination/005.png", "../mvtec_ad/cache/grid/ground_truth/metal_contamination/005_mask.png", "results/grid/regression_1/loss/metal_contamination/005.png", 0.5391740217839583, 509, 1038895, 5609, 3563, 0.125, 0.005370012943942771
"grid", "metal_contamination", "../mvtec_ad/cache/grid/test/metal_contamination/004.png", "results/grid/regression_1/predicted/metal_contamination/004.png", "../mvtec_ad/cache/grid/ground_truth/metal_contamination/004_mask.png", "results/grid/regression_1/loss/metal_contamination/004.png", 0.5391740217839583, 1634, 1038698, 5487, 2757, 0.37212480072876336, 0.005254815956942496
"grid", "metal_contamination", "../mvtec_ad/cache/grid/test/metal_contamination/003.png", "results/grid/regression_1/predicted/metal_contamination/003.png", "../mvtec_ad/cache/grid/ground_truth/metal_contamination/003_mask.png", "results/grid/regression_1/loss/metal_contamination/003.png", 0.5391740217839583, 2258, 1018600, 21428, 6290, 0.2641553579784745, 0.02060329144984558
"grid", "thread", "../mvtec_ad/cache/grid/test/thread/008.png", "results/grid/regression_1/predicted/thread/008.png", "../mvtec_ad/cache/grid/ground_truth/thread/008_mask.png", "results/grid/regression_1/loss/thread/008.png", 0.5391740217839583, 6077, 994200, 16821, 31478, 0.16181600319531353, 0.01663763660695475
"grid", "thread", "../mvtec_ad/cache/grid/test/thread/009.png", "results/grid/regression_1/predicted/thread/009.png", "../mvtec_ad/cache/grid/ground_truth/thread/009_mask.png", "results/grid/regression_1/loss/thread/009.png", 0.5391740217839583, 4445, 1022541, 9455, 12135, 0.2680940892641737, 0.009161857216500839
"grid", "thread", "../mvtec_ad/cache/grid/test/thread/002.png", "results/grid/regression_1/predicted/thread/002.png", "../mvtec_ad/cache/grid/ground_truth/thread/002_mask.png", "results/grid/regression_1/loss/thread/002.png", 0.5391740217839583, 4712, 1019289, 13292, 11283, 0.2945920600187559, 0.012872597888204412
"grid", "thread", "../mvtec_ad/cache/grid/test/thread/006.png", "results/grid/regression_1/predicted/thread/006.png", "../mvtec_ad/cache/grid/ground_truth/thread/006_mask.png", "results/grid/regression_1/loss/thread/006.png", 0.5391740217839583, 4661, 1020952, 11581, 11382, 0.29053169606682044, 0.011216106410158319
"grid", "thread", "../mvtec_ad/cache/grid/test/thread/007.png", "results/grid/regression_1/predicted/thread/007.png", "../mvtec_ad/cache/grid/ground_truth/thread/007_mask.png", "results/grid/regression_1/loss/thread/007.png", 0.5391740217839583, 10405, 1010139, 4538, 23494, 0.306941207705242, 0.004472359184252723
"grid", "thread", "../mvtec_ad/cache/grid/test/thread/010.png", "results/grid/regression_1/predicted/thread/010.png", "../mvtec_ad/cache/grid/ground_truth/thread/010_mask.png", "results/grid/regression_1/loss/thread/010.png", 0.5391740217839583, 8185, 1004560, 18549, 17282, 0.3213963168021361, 0.018130033065880565
"grid", "thread", "../mvtec_ad/cache/grid/test/thread/001.png", "results/grid/regression_1/predicted/thread/001.png", "../mvtec_ad/cache/grid/ground_truth/thread/001_mask.png", "results/grid/regression_1/loss/thread/001.png", 0.5391740217839583, 1328, 966324, 67996, 12928, 0.0931537598204265, 0.0657398097300642
"grid", "thread", "../mvtec_ad/cache/grid/test/thread/000.png", "results/grid/regression_1/predicted/thread/000.png", "../mvtec_ad/cache/grid/ground_truth/thread/000_mask.png", "results/grid/regression_1/loss/thread/000.png", 0.5391740217839583, 1058, 985186, 56036, 6296, 0.14386728311123198, 0.053817533628755444
"grid", "thread", "../mvtec_ad/cache/grid/test/thread/005.png", "results/grid/regression_1/predicted/thread/005.png", "../mvtec_ad/cache/grid/ground_truth/thread/005_mask.png", "results/grid/regression_1/loss/thread/005.png", 0.5391740217839583, 2356, 1006306, 26546, 13368, 0.149834647672348, 0.025701649413468725
"grid", "thread", "../mvtec_ad/cache/grid/test/thread/004.png", "results/grid/regression_1/predicted/thread/004.png", "../mvtec_ad/cache/grid/ground_truth/thread/004_mask.png", "results/grid/regression_1/loss/thread/004.png", 0.5391740217839583, 6256, 1003416, 12277, 26627, 0.19025028130036797, 0.012087313784775518
"grid", "thread", "../mvtec_ad/cache/grid/test/thread/003.png", "results/grid/regression_1/predicted/thread/003.png", "../mvtec_ad/cache/grid/ground_truth/thread/003_mask.png", "results/grid/regression_1/loss/thread/003.png", 0.5391740217839583, 3305, 1025660, 4567, 15044, 0.18011880756444493, 0.004433003600177437
"grid", "good", "../mvtec_ad/cache/grid/test/good/008.png", "results/grid/regression_1/predicted/good/008.png", "--good--", "results/grid/regression_1/loss/good/008.png", 0.5391740217839583, 0, 1039775, 8801, 0, 1.0, 0.008393287658691406
"grid", "good", "../mvtec_ad/cache/grid/test/good/015.png", "results/grid/regression_1/predicted/good/015.png", "--good--", "results/grid/regression_1/loss/good/015.png", 0.5391740217839583, 0, 1032585, 15991, 0, 1.0, 0.015250205993652344
"grid", "good", "../mvtec_ad/cache/grid/test/good/009.png", "results/grid/regression_1/predicted/good/009.png", "--good--", "results/grid/regression_1/loss/good/009.png", 0.5391740217839583, 0, 1033229, 15347, 0, 1.0, 0.014636039733886719
"grid", "good", "../mvtec_ad/cache/grid/test/good/002.png", "results/grid/regression_1/predicted/good/002.png", "--good--", "results/grid/regression_1/loss/good/002.png", 0.5391740217839583, 0, 1045150, 3426, 0, 1.0, 0.0032672882080078125
"grid", "good", "../mvtec_ad/cache/grid/test/good/019.png", "results/grid/regression_1/predicted/good/019.png", "--good--", "results/grid/regression_1/loss/good/019.png", 0.5391740217839583, 0, 1039452, 9124, 0, 1.0, 0.008701324462890625
"grid", "good", "../mvtec_ad/cache/grid/test/good/006.png", "results/grid/regression_1/predicted/good/006.png", "--good--", "results/grid/regression_1/loss/good/006.png", 0.5391740217839583, 0, 1039824, 8752, 0, 1.0, 0.0083465576171875
"grid", "good", "../mvtec_ad/cache/grid/test/good/007.png", "results/grid/regression_1/predicted/good/007.png", "--good--", "results/grid/regression_1/loss/good/007.png", 0.5391740217839583, 0, 1044456, 4120, 0, 1.0, 0.00392913818359375
"grid", "good", "../mvtec_ad/cache/grid/test/good/010.png", "results/grid/regression_1/predicted/good/010.png", "--good--", "results/grid/regression_1/loss/good/010.png", 0.5391740217839583, 0, 1046828, 1748, 0, 1.0, 0.001667022705078125
"grid", "good", "../mvtec_ad/cache/grid/test/good/013.png", "results/grid/regression_1/predicted/good/013.png", "--good--", "results/grid/regression_1/loss/good/013.png", 0.5391740217839583, 0, 1044867, 3709, 0, 1.0, 0.0035371780395507812
"grid", "good", "../mvtec_ad/cache/grid/test/good/017.png", "results/grid/regression_1/predicted/good/017.png", "--good--", "results/grid/regression_1/loss/good/017.png", 0.5391740217839583, 0, 1034844, 13732, 0, 1.0, 0.013095855712890625
"grid", "good", "../mvtec_ad/cache/grid/test/good/012.png", "results/grid/regression_1/predicted/good/012.png", "--good--", "results/grid/regression_1/loss/good/012.png", 0.5391740217839583, 0, 1037978, 10598, 0, 1.0, 0.010107040405273438
"grid", "good", "../mvtec_ad/cache/grid/test/good/001.png", "results/grid/regression_1/predicted/good/001.png", "--good--", "results/grid/regression_1/loss/good/001.png", 0.5391740217839583, 0, 1045998, 2578, 0, 1.0, 0.0024585723876953125
"grid", "good", "../mvtec_ad/cache/grid/test/good/000.png", "results/grid/regression_1/predicted/good/000.png", "--good--", "results/grid/regression_1/loss/good/000.png", 0.5391740217839583, 0, 1042713, 5863, 0, 1.0, 0.005591392517089844
"grid", "good", "../mvtec_ad/cache/grid/test/good/005.png", "results/grid/regression_1/predicted/good/005.png", "--good--", "results/grid/regression_1/loss/good/005.png", 0.5391740217839583, 0, 1041914, 6662, 0, 1.0, 0.0063533782958984375
"grid", "good", "../mvtec_ad/cache/grid/test/good/004.png", "results/grid/regression_1/predicted/good/004.png", "--good--", "results/grid/regression_1/loss/good/004.png", 0.5391740217839583, 0, 1032888, 15688, 0, 1.0, 0.01496124267578125
"grid", "good", "../mvtec_ad/cache/grid/test/good/014.png", "results/grid/regression_1/predicted/good/014.png", "--good--", "results/grid/regression_1/loss/good/014.png", 0.5391740217839583, 0, 1044062, 4514, 0, 1.0, 0.0043048858642578125
"grid", "good", "../mvtec_ad/cache/grid/test/good/011.png", "results/grid/regression_1/predicted/good/011.png", "--good--", "results/grid/regression_1/loss/good/011.png", 0.5391740217839583, 0, 1043336, 5240, 0, 1.0, 0.00499725341796875
"grid", "good", "../mvtec_ad/cache/grid/test/good/020.png", "results/grid/regression_1/predicted/good/020.png", "--good--", "results/grid/regression_1/loss/good/020.png", 0.5391740217839583, 0, 1045890, 2686, 0, 1.0, 0.0025615692138671875
"grid", "good", "../mvtec_ad/cache/grid/test/good/016.png", "results/grid/regression_1/predicted/good/016.png", "--good--", "results/grid/regression_1/loss/good/016.png", 0.5391740217839583, 0, 1037195, 11381, 0, 1.0, 0.010853767395019531
"grid", "good", "../mvtec_ad/cache/grid/test/good/018.png", "results/grid/regression_1/predicted/good/018.png", "--good--", "results/grid/regression_1/loss/good/018.png", 0.5391740217839583, 0, 989348, 59228, 0, 1.0, 0.056484222412109375
"grid", "good", "../mvtec_ad/cache/grid/test/good/003.png", "results/grid/regression_1/predicted/good/003.png", "--good--", "results/grid/regression_1/loss/good/003.png", 0.5391740217839583, 0, 1041058, 7518, 0, 1.0, 0.0071697235107421875
