dataset, category, original_file_name, predicted_file_name, truth_file_name, loss_file_name, thresh, TP, TN, FP, FN, TPR, FPR
"grid", "broken", "../mvtec_ad/cache/grid/test/broken/008.png", "results/grid/regression_1/predicted/broken/008.png", "../mvtec_ad/cache/grid/ground_truth/broken/008_mask.png", "results/grid/regression_1/loss/broken/008.png", 0.24931406767290237, 2729, 965636, 78805, 1406, 0.6599758162031439, 0.07545184457523212
"grid", "broken", "../mvtec_ad/cache/grid/test/broken/009.png", "results/grid/regression_1/predicted/broken/009.png", "../mvtec_ad/cache/grid/ground_truth/broken/009_mask.png", "results/grid/regression_1/loss/broken/009.png", 0.24931406767290237, 5351, 619545, 422724, 956, 0.8484223878230538, 0.4055805171217795
"grid", "broken", "../mvtec_ad/cache/grid/test/broken/002.png", "results/grid/regression_1/predicted/broken/002.png", "../mvtec_ad/cache/grid/ground_truth/broken/002_mask.png", "results/grid/regression_1/loss/broken/002.png", 0.24931406767290237, 2336, 789050, 256844, 346, 0.8709917971662938, 0.2455736432181464
"grid", "broken", "../mvtec_ad/cache/grid/test/broken/006.png", "results/grid/regression_1/predicted/broken/006.png", "../mvtec_ad/cache/grid/ground_truth/broken/006_mask.png", "results/grid/regression_1/loss/broken/006.png", 0.24931406767290237, 4435, 933493, 109594, 1054, 0.8079795955547459, 0.1050669790726948
"grid", "broken", "../mvtec_ad/cache/grid/test/broken/007.png", "results/grid/regression_1/predicted/broken/007.png", "../mvtec_ad/cache/grid/ground_truth/broken/007_mask.png", "results/grid/regression_1/loss/broken/007.png", 0.24931406767290237, 3907, 919773, 123951, 945, 0.8052349546578731, 0.11875840739505847
"grid", "broken", "../mvtec_ad/cache/grid/test/broken/010.png", "results/grid/regression_1/predicted/broken/010.png", "../mvtec_ad/cache/grid/ground_truth/broken/010_mask.png", "results/grid/regression_1/loss/broken/010.png", 0.24931406767290237, 3307, 920993, 122413, 1863, 0.639651837524178, 0.1173205827836911
"grid", "broken", "../mvtec_ad/cache/grid/test/broken/001.png", "results/grid/regression_1/predicted/broken/001.png", "../mvtec_ad/cache/grid/ground_truth/broken/001_mask.png", "results/grid/regression_1/loss/broken/001.png", 0.24931406767290237, 21078, 884004, 140196, 3298, 0.8647029865441418, 0.13688342120679556
"grid", "broken", "../mvtec_ad/cache/grid/test/broken/000.png", "results/grid/regression_1/predicted/broken/000.png", "../mvtec_ad/cache/grid/ground_truth/broken/000_mask.png", "results/grid/regression_1/loss/broken/000.png", 0.24931406767290237, 6123, 782857, 258291, 1305, 0.824313408723748, 0.24808288543031345
"grid", "broken", "../mvtec_ad/cache/grid/test/broken/005.png", "results/grid/regression_1/predicted/broken/005.png", "../mvtec_ad/cache/grid/ground_truth/broken/005_mask.png", "results/grid/regression_1/loss/broken/005.png", 0.24931406767290237, 5271, 952712, 89236, 1357, 0.7952625226312613, 0.08564342942258155
"grid", "broken", "../mvtec_ad/cache/grid/test/broken/004.png", "results/grid/regression_1/predicted/broken/004.png", "../mvtec_ad/cache/grid/ground_truth/broken/004_mask.png", "results/grid/regression_1/loss/broken/004.png", 0.24931406767290237, 3461, 953001, 90959, 1155, 0.7497833622183708, 0.08712881719606115
"grid", "broken", "../mvtec_ad/cache/grid/test/broken/011.png", "results/grid/regression_1/predicted/broken/011.png", "../mvtec_ad/cache/grid/ground_truth/broken/011_mask.png", "results/grid/regression_1/loss/broken/011.png", 0.24931406767290237, 3041, 772095, 272479, 961, 0.7598700649675162, 0.26085179221385946
"grid", "broken", "../mvtec_ad/cache/grid/test/broken/003.png", "results/grid/regression_1/predicted/broken/003.png", "../mvtec_ad/cache/grid/ground_truth/broken/003_mask.png", "results/grid/regression_1/loss/broken/003.png", 0.24931406767290237, 9432, 920072, 116644, 2428, 0.7952782462057335, 0.11251297365913134
"grid", "glue", "../mvtec_ad/cache/grid/test/glue/008.png", "results/grid/regression_1/predicted/glue/008.png", "../mvtec_ad/cache/grid/ground_truth/glue/008_mask.png", "results/grid/regression_1/loss/glue/008.png", 0.24931406767290237, 1617, 784019, 262173, 767, 0.6782718120805369, 0.25059740468288805
"grid", "glue", "../mvtec_ad/cache/grid/test/glue/009.png", "results/grid/regression_1/predicted/glue/009.png", "../mvtec_ad/cache/grid/ground_truth/glue/009_mask.png", "results/grid/regression_1/loss/glue/009.png", 0.24931406767290237, 3884, 752949, 289079, 2664, 0.5931582162492364, 0.27741960868613896
"grid", "glue", "../mvtec_ad/cache/grid/test/glue/002.png", "results/grid/regression_1/predicted/glue/002.png", "../mvtec_ad/cache/grid/ground_truth/glue/002_mask.png", "results/grid/regression_1/loss/glue/002.png", 0.24931406767290237, 2152, 959309, 83868, 3247, 0.3985923319133173, 0.08039671120049617
"grid", "glue", "../mvtec_ad/cache/grid/test/glue/006.png", "results/grid/regression_1/predicted/glue/006.png", "../mvtec_ad/cache/grid/ground_truth/glue/006_mask.png", "results/grid/regression_1/loss/glue/006.png", 0.24931406767290237, 1956, 579298, 464440, 2882, 0.4042992972302604, 0.44497757099961865
"grid", "glue", "../mvtec_ad/cache/grid/test/glue/007.png", "results/grid/regression_1/predicted/glue/007.png", "../mvtec_ad/cache/grid/ground_truth/glue/007_mask.png", "results/grid/regression_1/loss/glue/007.png", 0.24931406767290237, 1980, 864331, 179120, 3145, 0.38634146341463416, 0.17166115131424475
"grid", "glue", "../mvtec_ad/cache/grid/test/glue/010.png", "results/grid/regression_1/predicted/glue/010.png", "../mvtec_ad/cache/grid/ground_truth/glue/010_mask.png", "results/grid/regression_1/loss/glue/010.png", 0.24931406767290237, 3217, 729001, 312764, 3594, 0.47232418147114963, 0.30022509875067793
"grid", "glue", "../mvtec_ad/cache/grid/test/glue/001.png", "results/grid/regression_1/predicted/glue/001.png", "../mvtec_ad/cache/grid/ground_truth/glue/001_mask.png", "results/grid/regression_1/loss/glue/001.png", 0.24931406767290237, 2031, 959525, 84032, 2988, 0.4046622833233712, 0.08052459041528158
"grid", "glue", "../mvtec_ad/cache/grid/test/glue/000.png", "results/grid/regression_1/predicted/glue/000.png", "../mvtec_ad/cache/grid/ground_truth/glue/000_mask.png", "results/grid/regression_1/loss/glue/000.png", 0.24931406767290237, 3706, 606988, 435817, 2065, 0.6421763992375672, 0.4179276087092026
"grid", "glue", "../mvtec_ad/cache/grid/test/glue/005.png", "results/grid/regression_1/predicted/glue/005.png", "../mvtec_ad/cache/grid/ground_truth/glue/005_mask.png", "results/grid/regression_1/loss/glue/005.png", 0.24931406767290237, 1287, 522538, 523496, 1255, 0.506294256490952, 0.5004579201058474
"grid", "glue", "../mvtec_ad/cache/grid/test/glue/004.png", "results/grid/regression_1/predicted/glue/004.png", "../mvtec_ad/cache/grid/ground_truth/glue/004_mask.png", "results/grid/regression_1/loss/glue/004.png", 0.24931406767290237, 3927, 707393, 333487, 3769, 0.5102650727650727, 0.3203894781338867
"grid", "glue", "../mvtec_ad/cache/grid/test/glue/003.png", "results/grid/regression_1/predicted/glue/003.png", "../mvtec_ad/cache/grid/ground_truth/glue/003_mask.png", "results/grid/regression_1/loss/glue/003.png", 0.24931406767290237, 2475, 931752, 112030, 2319, 0.516270337922403, 0.1073308411143323
"grid", "bent", "../mvtec_ad/cache/grid/test/bent/008.png", "results/grid/regression_1/predicted/bent/008.png", "../mvtec_ad/cache/grid/ground_truth/bent/008_mask.png", "results/grid/regression_1/loss/bent/008.png", 0.24931406767290237, 3797, 928010, 114346, 2423, 0.6104501607717042, 0.10969956521572284
"grid", "bent", "../mvtec_ad/cache/grid/test/bent/009.png", "results/grid/regression_1/predicted/bent/009.png", "../mvtec_ad/cache/grid/ground_truth/bent/009_mask.png", "results/grid/regression_1/loss/bent/009.png", 0.24931406767290237, 8220, 982136, 51972, 6248, 0.5681504008847111, 0.050257806728117374
"grid", "bent", "../mvtec_ad/cache/grid/test/bent/002.png", "results/grid/regression_1/predicted/bent/002.png", "../mvtec_ad/cache/grid/ground_truth/bent/002_mask.png", "results/grid/regression_1/loss/bent/002.png", 0.24931406767290237, 3046, 974456, 69805, 1269, 0.705909617612978, 0.06684631524111309
"grid", "bent", "../mvtec_ad/cache/grid/test/bent/006.png", "results/grid/regression_1/predicted/bent/006.png", "../mvtec_ad/cache/grid/ground_truth/bent/006_mask.png", "results/grid/regression_1/loss/bent/006.png", 0.24931406767290237, 18092, 829676, 196271, 4537, 0.7995050598789164, 0.1913071532934937
"grid", "bent", "../mvtec_ad/cache/grid/test/bent/007.png", "results/grid/regression_1/predicted/bent/007.png", "../mvtec_ad/cache/grid/ground_truth/bent/007_mask.png", "results/grid/regression_1/loss/bent/007.png", 0.24931406767290237, 8496, 986740, 49869, 3471, 0.7099523690147906, 0.04810782078874484
"grid", "bent", "../mvtec_ad/cache/grid/test/bent/010.png", "results/grid/regression_1/predicted/bent/010.png", "../mvtec_ad/cache/grid/ground_truth/bent/010_mask.png", "results/grid/regression_1/loss/bent/010.png", 0.24931406767290237, 10366, 977958, 51024, 9228, 0.5290395018883332, 0.04958687323976513
"grid", "bent", "../mvtec_ad/cache/grid/test/bent/001.png", "results/grid/regression_1/predicted/bent/001.png", "../mvtec_ad/cache/grid/ground_truth/bent/001_mask.png", "results/grid/regression_1/loss/bent/001.png", 0.24931406767290237, 3301, 917454, 126568, 1253, 0.7248572683355292, 0.12123116179544109
"grid", "bent", "../mvtec_ad/cache/grid/test/bent/000.png", "results/grid/regression_1/predicted/bent/000.png", "../mvtec_ad/cache/grid/ground_truth/bent/000_mask.png", "results/grid/regression_1/loss/bent/000.png", 0.24931406767290237, 4569, 736765, 306351, 891, 0.8368131868131868, 0.2936883337998842
"grid", "bent", "../mvtec_ad/cache/grid/test/bent/005.png", "results/grid/regression_1/predicted/bent/005.png", "../mvtec_ad/cache/grid/ground_truth/bent/005_mask.png", "results/grid/regression_1/loss/bent/005.png", 0.24931406767290237, 11111, 943674, 89943, 3848, 0.7427635537134836, 0.08701772513416478
"grid", "bent", "../mvtec_ad/cache/grid/test/bent/004.png", "results/grid/regression_1/predicted/bent/004.png", "../mvtec_ad/cache/grid/ground_truth/bent/004_mask.png", "results/grid/regression_1/loss/bent/004.png", 0.24931406767290237, 6116, 940883, 98984, 2593, 0.7022620277873465, 0.09518909629789195
"grid", "bent", "../mvtec_ad/cache/grid/test/bent/011.png", "results/grid/regression_1/predicted/bent/011.png", "../mvtec_ad/cache/grid/ground_truth/bent/011_mask.png", "results/grid/regression_1/loss/bent/011.png", 0.24931406767290237, 11291, 835991, 197449, 3845, 0.7459698731501057, 0.19105995510140888
"grid", "bent", "../mvtec_ad/cache/grid/test/bent/003.png", "results/grid/regression_1/predicted/bent/003.png", "../mvtec_ad/cache/grid/ground_truth/bent/003_mask.png", "results/grid/regression_1/loss/bent/003.png", 0.24931406767290237, 5410, 742215, 298501, 2450, 0.688295165394402, 0.2868227258925586
"grid", "metal_contamination", "../mvtec_ad/cache/grid/test/metal_contamination/008.png", "results/grid/regression_1/predicted/metal_contamination/008.png", "../mvtec_ad/cache/grid/ground_truth/metal_contamination/008_mask.png", "results/grid/regression_1/loss/metal_contamination/008.png", 0.24931406767290237, 3464, 945004, 99329, 779, 0.8164034880980439, 0.09511238273615791
"grid", "metal_contamination", "../mvtec_ad/cache/grid/test/metal_contamination/009.png", "results/grid/regression_1/predicted/metal_contamination/009.png", "../mvtec_ad/cache/grid/ground_truth/metal_contamination/009_mask.png", "results/grid/regression_1/loss/metal_contamination/009.png", 0.24931406767290237, 3683, 959510, 84817, 566, 0.8667921863967992, 0.0812168985384846
"grid", "metal_contamination", "../mvtec_ad/cache/grid/test/metal_contamination/002.png", "results/grid/regression_1/predicted/metal_contamination/002.png", "../mvtec_ad/cache/grid/ground_truth/metal_contamination/002_mask.png", "results/grid/regression_1/loss/metal_contamination/002.png", 0.24931406767290237, 3780, 883848, 160081, 867, 0.8134280180761781, 0.15334471980374145
"grid", "metal_contamination", "../mvtec_ad/cache/grid/test/metal_contamination/006.png", "results/grid/regression_1/predicted/metal_contamination/006.png", "../mvtec_ad/cache/grid/ground_truth/metal_contamination/006_mask.png", "results/grid/regression_1/loss/metal_contamination/006.png", 0.24931406767290237, 2667, 755547, 289898, 464, 0.8518045352922389, 0.2772962709659523
"grid", "metal_contamination", "../mvtec_ad/cache/grid/test/metal_contamination/007.png", "results/grid/regression_1/predicted/metal_contamination/007.png", "../mvtec_ad/cache/grid/ground_truth/metal_contamination/007_mask.png", "results/grid/regression_1/loss/metal_contamination/007.png", 0.24931406767290237, 1658, 813213, 233387, 318, 0.8390688259109311, 0.22299541372061915
"grid", "metal_contamination", "../mvtec_ad/cache/grid/test/metal_contamination/010.png", "results/grid/regression_1/predicted/metal_contamination/010.png", "../mvtec_ad/cache/grid/ground_truth/metal_contamination/010_mask.png", "results/grid/regression_1/loss/metal_contamination/010.png", 0.24931406767290237, 4566, 975786, 67627, 597, 0.8843695525857059, 0.06481326186275234
"grid", "metal_contamination", "../mvtec_ad/cache/grid/test/metal_contamination/001.png", "results/grid/regression_1/predicted/metal_contamination/001.png", "../mvtec_ad/cache/grid/ground_truth/metal_contamination/001_mask.png", "results/grid/regression_1/loss/metal_contamination/001.png", 0.24931406767290237, 5803, 923123, 118001, 1649, 0.7787171229200215, 0.11334000560932224
"grid", "metal_contamination", "../mvtec_ad/cache/grid/test/metal_contamination/000.png", "results/grid/regression_1/predicted/metal_contamination/000.png", "../mvtec_ad/cache/grid/ground_truth/metal_contamination/000_mask.png", "results/grid/regression_1/loss/metal_contamination/000.png", 0.24931406767290237, 2454, 795025, 250927, 170, 0.9352134146341463, 0.23990297833935018
"grid", "metal_contamination", "../mvtec_ad/cache/grid/test/metal_contamination/005.png", "results/grid/regression_1/predicted/metal_contamination/005.png", "../mvtec_ad/cache/grid/ground_truth/metal_contamination/005_mask.png", "results/grid/regression_1/loss/metal_contamination/005.png", 0.24931406767290237, 3905, 917005, 127499, 167, 0.9589882121807466, 0.1220665502477731
"grid", "metal_contamination", "../mvtec_ad/cache/grid/test/metal_contamination/004.png", "results/grid/regression_1/predicted/metal_contamination/004.png", "../mvtec_ad/cache/grid/ground_truth/metal_contamination/004_mask.png", "results/grid/regression_1/loss/metal_contamination/004.png", 0.24931406767290237, 4369, 908094, 136091, 22, 0.9949897517649738, 0.13033226870717354
"grid", "metal_contamination", "../mvtec_ad/cache/grid/test/metal_contamination/003.png", "results/grid/regression_1/predicted/metal_contamination/003.png", "../mvtec_ad/cache/grid/ground_truth/metal_contamination/003_mask.png", "results/grid/regression_1/loss/metal_contamination/003.png", 0.24931406767290237, 7470, 851603, 188425, 1078, 0.8738886289190454, 0.181173006880584
"grid", "thread", "../mvtec_ad/cache/grid/test/thread/008.png", "results/grid/regression_1/predicted/thread/008.png", "../mvtec_ad/cache/grid/ground_truth/thread/008_mask.png", "results/grid/regression_1/loss/thread/008.png", 0.24931406767290237, 22138, 758498, 252523, 15417, 0.5894820929303688, 0.2497702817251076
"grid", "thread", "../mvtec_ad/cache/grid/test/thread/009.png", "results/grid/regression_1/predicted/thread/009.png", "../mvtec_ad/cache/grid/ground_truth/thread/009_mask.png", "results/grid/regression_1/loss/thread/009.png", 0.24931406767290237, 14745, 806297, 225699, 1835, 0.8893244873341375, 0.21870142907530649
"grid", "thread", "../mvtec_ad/cache/grid/test/thread/002.png", "results/grid/regression_1/predicted/thread/002.png", "../mvtec_ad/cache/grid/ground_truth/thread/002_mask.png", "results/grid/regression_1/loss/thread/002.png", 0.24931406767290237, 13143, 713850, 318731, 2852, 0.821694279462332, 0.308674089490316
"grid", "thread", "../mvtec_ad/cache/grid/test/thread/006.png", "results/grid/regression_1/predicted/thread/006.png", "../mvtec_ad/cache/grid/ground_truth/thread/006_mask.png", "results/grid/regression_1/loss/thread/006.png", 0.24931406767290237, 12805, 836975, 195558, 3238, 0.798167425045191, 0.18939636796112086
"grid", "thread", "../mvtec_ad/cache/grid/test/thread/007.png", "results/grid/regression_1/predicted/thread/007.png", "../mvtec_ad/cache/grid/ground_truth/thread/007_mask.png", "results/grid/regression_1/loss/thread/007.png", 0.24931406767290237, 25166, 878047, 136630, 8733, 0.742381781173486, 0.13465368782380993
"grid", "thread", "../mvtec_ad/cache/grid/test/thread/010.png", "results/grid/regression_1/predicted/thread/010.png", "../mvtec_ad/cache/grid/ground_truth/thread/010_mask.png", "results/grid/regression_1/loss/thread/010.png", 0.24931406767290237, 22546, 678549, 344560, 2921, 0.8853025483959635, 0.3367774108135106
"grid", "thread", "../mvtec_ad/cache/grid/test/thread/001.png", "results/grid/regression_1/predicted/thread/001.png", "../mvtec_ad/cache/grid/ground_truth/thread/001_mask.png", "results/grid/regression_1/loss/thread/001.png", 0.24931406767290237, 10997, 719964, 314356, 3259, 0.7713945005611672, 0.30392528424472115
"grid", "thread", "../mvtec_ad/cache/grid/test/thread/000.png", "results/grid/regression_1/predicted/thread/000.png", "../mvtec_ad/cache/grid/ground_truth/thread/000_mask.png", "results/grid/regression_1/loss/thread/000.png", 0.24931406767290237, 5914, 647539, 393683, 1440, 0.8041881968996465, 0.37809708208239934
"grid", "thread", "../mvtec_ad/cache/grid/test/thread/005.png", "results/grid/regression_1/predicted/thread/005.png", "../mvtec_ad/cache/grid/ground_truth/thread/005_mask.png", "results/grid/regression_1/loss/thread/005.png", 0.24931406767290237, 12823, 671212, 361640, 2901, 0.8155049605698296, 0.3501372897569061
"grid", "thread", "../mvtec_ad/cache/grid/test/thread/004.png", "results/grid/regression_1/predicted/thread/004.png", "../mvtec_ad/cache/grid/ground_truth/thread/004_mask.png", "results/grid/regression_1/loss/thread/004.png", 0.24931406767290237, 26454, 778521, 237172, 6429, 0.804488641547304, 0.23350756577036566
"grid", "thread", "../mvtec_ad/cache/grid/test/thread/003.png", "results/grid/regression_1/predicted/thread/003.png", "../mvtec_ad/cache/grid/ground_truth/thread/003_mask.png", "results/grid/regression_1/loss/thread/003.png", 0.24931406767290237, 13420, 899492, 130735, 4929, 0.7313750068123603, 0.12689921735695142
"grid", "good", "../mvtec_ad/cache/grid/test/good/008.png", "results/grid/regression_1/predicted/good/008.png", "--good--", "results/grid/regression_1/loss/good/008.png", 0.24931406767290237, 0, 845117, 203459, 0, 1.0, 0.19403362274169922
"grid", "good", "../mvtec_ad/cache/grid/test/good/015.png", "results/grid/regression_1/predicted/good/015.png", "--good--", "results/grid/regression_1/loss/good/015.png", 0.24931406767290237, 0, 786965, 261611, 0, 1.0, 0.24949169158935547
"grid", "good", "../mvtec_ad/cache/grid/test/good/009.png", "results/grid/regression_1/predicted/good/009.png", "--good--", "results/grid/regression_1/loss/good/009.png", 0.24931406767290237, 0, 807650, 240926, 0, 1.0, 0.2297649383544922
"grid", "good", "../mvtec_ad/cache/grid/test/good/002.png", "results/grid/regression_1/predicted/good/002.png", "--good--", "results/grid/regression_1/loss/good/002.png", 0.24931406767290237, 0, 832166, 216410, 0, 1.0, 0.20638465881347656
"grid", "good", "../mvtec_ad/cache/grid/test/good/019.png", "results/grid/regression_1/predicted/good/019.png", "--good--", "results/grid/regression_1/loss/good/019.png", 0.24931406767290237, 0, 699853, 348723, 0, 1.0, 0.3325681686401367
"grid", "good", "../mvtec_ad/cache/grid/test/good/006.png", "results/grid/regression_1/predicted/good/006.png", "--good--", "results/grid/regression_1/loss/good/006.png", 0.24931406767290237, 0, 684240, 364336, 0, 1.0, 0.3474578857421875
"grid", "good", "../mvtec_ad/cache/grid/test/good/007.png", "results/grid/regression_1/predicted/good/007.png", "--good--", "results/grid/regression_1/loss/good/007.png", 0.24931406767290237, 0, 860578, 187998, 0, 1.0, 0.1792888641357422
"grid", "good", "../mvtec_ad/cache/grid/test/good/010.png", "results/grid/regression_1/predicted/good/010.png", "--good--", "results/grid/regression_1/loss/good/010.png", 0.24931406767290237, 0, 728367, 320209, 0, 1.0, 0.3053750991821289
"grid", "good", "../mvtec_ad/cache/grid/test/good/013.png", "results/grid/regression_1/predicted/good/013.png", "--good--", "results/grid/regression_1/loss/good/013.png", 0.24931406767290237, 0, 977097, 71479, 0, 1.0, 0.06816768646240234
"grid", "good", "../mvtec_ad/cache/grid/test/good/017.png", "results/grid/regression_1/predicted/good/017.png", "--good--", "results/grid/regression_1/loss/good/017.png", 0.24931406767290237, 0, 803425, 245151, 0, 1.0, 0.2337942123413086
"grid", "good", "../mvtec_ad/cache/grid/test/good/012.png", "results/grid/regression_1/predicted/good/012.png", "--good--", "results/grid/regression_1/loss/good/012.png", 0.24931406767290237, 0, 763323, 285253, 0, 1.0, 0.27203845977783203
"grid", "good", "../mvtec_ad/cache/grid/test/good/001.png", "results/grid/regression_1/predicted/good/001.png", "--good--", "results/grid/regression_1/loss/good/001.png", 0.24931406767290237, 0, 903101, 145475, 0, 1.0, 0.13873577117919922
"grid", "good", "../mvtec_ad/cache/grid/test/good/000.png", "results/grid/regression_1/predicted/good/000.png", "--good--", "results/grid/regression_1/loss/good/000.png", 0.24931406767290237, 0, 962000, 86576, 0, 1.0, 0.0825653076171875
"grid", "good", "../mvtec_ad/cache/grid/test/good/005.png", "results/grid/regression_1/predicted/good/005.png", "--good--", "results/grid/regression_1/loss/good/005.png", 0.24931406767290237, 0, 623841, 424735, 0, 1.0, 0.4050588607788086
"grid", "good", "../mvtec_ad/cache/grid/test/good/004.png", "results/grid/regression_1/predicted/good/004.png", "--good--", "results/grid/regression_1/loss/good/004.png", 0.24931406767290237, 0, 670418, 378158, 0, 1.0, 0.3606395721435547
"grid", "good", "../mvtec_ad/cache/grid/test/good/014.png", "results/grid/regression_1/predicted/good/014.png", "--good--", "results/grid/regression_1/loss/good/014.png", 0.24931406767290237, 0, 944974, 103602, 0, 1.0, 0.09880256652832031
"grid", "good", "../mvtec_ad/cache/grid/test/good/011.png", "results/grid/regression_1/predicted/good/011.png", "--good--", "results/grid/regression_1/loss/good/011.png", 0.24931406767290237, 0, 817653, 230923, 0, 1.0, 0.22022533416748047
"grid", "good", "../mvtec_ad/cache/grid/test/good/020.png", "results/grid/regression_1/predicted/good/020.png", "--good--", "results/grid/regression_1/loss/good/020.png", 0.24931406767290237, 0, 716476, 332100, 0, 1.0, 0.3167152404785156
"grid", "good", "../mvtec_ad/cache/grid/test/good/016.png", "results/grid/regression_1/predicted/good/016.png", "--good--", "results/grid/regression_1/loss/good/016.png", 0.24931406767290237, 0, 890523, 158053, 0, 1.0, 0.15073108673095703
"grid", "good", "../mvtec_ad/cache/grid/test/good/018.png", "results/grid/regression_1/predicted/good/018.png", "--good--", "results/grid/regression_1/loss/good/018.png", 0.24931406767290237, 0, 592065, 456511, 0, 1.0, 0.4353628158569336
"grid", "good", "../mvtec_ad/cache/grid/test/good/003.png", "results/grid/regression_1/predicted/good/003.png", "--good--", "results/grid/regression_1/loss/good/003.png", 0.24931406767290237, 0, 943546, 105030, 0, 1.0, 0.10016441345214844
